Section 2 design operation/gtkwave.vcd
$version Generated by VerilatedVcd $end
$date Thu Nov 17 17:11:20 2022
 $end
$timescale   1ps $end

 $scope module TOP $end
  $var wire  1 /! clock $end
  $var wire  1 0! reset $end
  $scope module testbench $end
   $var wire 32 1! MEM_ADDR_WIDTH [31:0] $end
   $var wire  1 /! clock $end
   $var wire 32 * cycles [31:0] $end
   $var wire 32 w dmem_addr [31:0] $end
   $var wire 32 & dmem_rdata [31:0] $end
   $var wire  1 v dmem_valid $end
   $var wire 32 y dmem_wdata [31:0] $end
   $var wire  4 x dmem_wstrb [3:0] $end
   $var wire 32 ) i [31:0] $end
   $var wire 32 u imem_addr [31:0] $end
   $var wire 32 % imem_data [31:0] $end
   $var wire 32 ' out [31:0] $end
   $var wire  1 ( out_valid $end
   $var wire  1 0! reset $end
   $var wire  1 # trap $end
   $var wire  1 z wr_in_mem_range $end
   $var wire  1 { wr_in_output $end
   $var wire 32 $ x10 [31:0] $end
   $scope module dut $end
    $var wire 32 3! NUMREGS [31:0] $end
    $var wire  7 A! OPCODE_AMO [6:0] $end
    $var wire  7 H! OPCODE_AUIPC [6:0] $end
    $var wire  7 7! OPCODE_BRANCH [6:0] $end
    $var wire  7 <! OPCODE_CUSTOM_0 [6:0] $end
    $var wire  7 =! OPCODE_CUSTOM_1 [6:0] $end
    $var wire  7 N! OPCODE_CUSTOM_2 [6:0] $end
    $var wire  7 O! OPCODE_CUSTOM_3 [6:0] $end
    $var wire  7 C! OPCODE_JAL [6:0] $end
    $var wire  7 ;! OPCODE_JALR [6:0] $end
    $var wire  7 4! OPCODE_LOAD [6:0] $end
    $var wire  7 8! OPCODE_LOAD_FP [6:0] $end
    $var wire  7 I! OPCODE_LUI [6:0] $end
    $var wire  7 6! OPCODE_MADD [6:0] $end
    $var wire  7 @! OPCODE_MISC_MEM [6:0] $end
    $var wire  7 :! OPCODE_MSUB [6:0] $end
    $var wire  7 B! OPCODE_NMADD [6:0] $end
    $var wire  7 >! OPCODE_NMSUB [6:0] $end
    $var wire  7 E! OPCODE_OP [6:0] $end
    $var wire  7 M! OPCODE_OP_32 [6:0] $end
    $var wire  7 F! OPCODE_OP_FP [6:0] $end
    $var wire  7 D! OPCODE_OP_IMM [6:0] $end
    $var wire  7 L! OPCODE_OP_IMM_32 [6:0] $end
    $var wire  7 ?! OPCODE_RESERVED_0 [6:0] $end
    $var wire  7 J! OPCODE_RESERVED_1 [6:0] $end
    $var wire  7 K! OPCODE_RESERVED_2 [6:0] $end
    $var wire  7 5! OPCODE_STORE [6:0] $end
    $var wire  7 9! OPCODE_STORE_FP [6:0] $end
    $var wire  7 G! OPCODE_SYSTEM [6:0] $end
    $var wire 32 2! RESET_ADDR [31:0] $end
    $var wire  1 q block_EX $end
    $var wire  1 -! block_ID $end
    $var wire  1 /! clock $end
    $var wire 32 w dmem_addr [31:0] $end
    $var wire 32 & dmem_rdata [31:0] $end
    $var wire  1 v dmem_valid $end
    $var wire 32 y dmem_wdata [31:0] $end
    $var wire  4 x dmem_wstrb [3:0] $end
    $var wire  1 o fw_rs1 $end
    $var wire  1 p fw_rs2 $end
    $var wire  1 +! illinsn $end
    $var wire 32 u imem_addr [31:0] $end
    $var wire 32 Q imem_addr_q [31:0] $end
    $var wire 32 % imem_data [31:0] $end
    $var wire 13 d imm_b [12:0] $end
    $var wire 32 l imm_b_sext [31:0] $end
    $var wire 32 h imm_b_sext_ID [31:0] $end
    $var wire 12 b imm_i [11:0] $end
    $var wire 32 j imm_i_sext [31:0] $end
    $var wire 32 f imm_i_sext_ID [31:0] $end
    $var wire 21 e imm_j [20:0] $end
    $var wire 32 m imm_j_sext [31:0] $end
    $var wire 32 i imm_j_sext_ID [31:0] $end
    $var wire 12 c imm_s [11:0] $end
    $var wire 32 k imm_s_sext [31:0] $end
    $var wire 32 g imm_s_sext_ID [31:0] $end
    $var wire 32 % insn [31:0] $end
    $var wire 32 P insn_EX [31:0] $end
    $var wire  3 Y insn_funct3 [2:0] $end
    $var wire  3 _ insn_funct3_EX [2:0] $end
    $var wire  7 V insn_funct7 [6:0] $end
    $var wire  7 \ insn_funct7_EX [6:0] $end
    $var wire  7 [ insn_opcode [6:0] $end
    $var wire  7 a insn_opcode_EX [6:0] $end
    $var wire  5 Z insn_rd [4:0] $end
    $var wire  5 ` insn_rd_EX [4:0] $end
    $var wire  5 X insn_rs1 [4:0] $end
    $var wire  5 ^ insn_rs1_EX [4:0] $end
    $var wire  5 W insn_rs2 [4:0] $end
    $var wire  5 ] insn_rs2_EX [4:0] $end
    $var wire  1 ,! j_b_check $end
    $var wire 32 #! mem_rd_addr [31:0] $end
    $var wire  1 "! mem_rd_enable $end
    $var wire  1 + mem_rd_enable_q $end
    $var wire  5 %! mem_rd_func [4:0] $end
    $var wire  5 - mem_rd_func_q [4:0] $end
    $var wire  5 $! mem_rd_reg [4:0] $end
    $var wire  5 , mem_rd_reg_q [4:0] $end
    $var wire 32 t mem_rdata [31:0] $end
    $var wire 32 } mem_wr_addr [31:0] $end
    $var wire 32 ~ mem_wr_data [31:0] $end
    $var wire  1 | mem_wr_enable $end
    $var wire  4 !! mem_wr_strb [3:0] $end
    $var wire 32 *! next_rd [31:0] $end
    $var wire  1 )! next_wr $end
    $var wire 32 &! npc [31:0] $end
    $var wire 32 N pc [31:0] $end
    $var wire 32 O ppc [31:0] $end
    $var wire  1 '! read_en_rs1 $end
    $var wire  1 (! read_en_rs2 $end
    $var wire 32 . regfile(0) [31:0] $end
    $var wire 32 / regfile(1) [31:0] $end
    $var wire 32 8 regfile(10) [31:0] $end
    $var wire 32 9 regfile(11) [31:0] $end
    $var wire 32 : regfile(12) [31:0] $end
    $var wire 32 ; regfile(13) [31:0] $end
    $var wire 32 < regfile(14) [31:0] $end
    $var wire 32 = regfile(15) [31:0] $end
    $var wire 32 > regfile(16) [31:0] $end
    $var wire 32 ? regfile(17) [31:0] $end
    $var wire 32 @ regfile(18) [31:0] $end
    $var wire 32 A regfile(19) [31:0] $end
    $var wire 32 0 regfile(2) [31:0] $end
    $var wire 32 B regfile(20) [31:0] $end
    $var wire 32 C regfile(21) [31:0] $end
    $var wire 32 D regfile(22) [31:0] $end
    $var wire 32 E regfile(23) [31:0] $end
    $var wire 32 F regfile(24) [31:0] $end
    $var wire 32 G regfile(25) [31:0] $end
    $var wire 32 H regfile(26) [31:0] $end
    $var wire 32 I regfile(27) [31:0] $end
    $var wire 32 J regfile(28) [31:0] $end
    $var wire 32 K regfile(29) [31:0] $end
    $var wire 32 1 regfile(3) [31:0] $end
    $var wire 32 L regfile(30) [31:0] $end
    $var wire 32 M regfile(31) [31:0] $end
    $var wire 32 2 regfile(4) [31:0] $end
    $var wire 32 3 regfile(5) [31:0] $end
    $var wire 32 4 regfile(6) [31:0] $end
    $var wire 32 5 regfile(7) [31:0] $end
    $var wire 32 6 regfile(8) [31:0] $end
    $var wire 32 7 regfile(9) [31:0] $end
    $var wire  1 0! reset $end
    $var wire  1 s reset_q $end
    $var wire 32 T rs1_value [31:0] $end
    $var wire 32 R rs1_value_ID [31:0] $end
    $var wire 32 U rs2_value [31:0] $end
    $var wire 32 S rs2_value_ID [31:0] $end
    $var wire  1 r stall_EX $end
    $var wire  1 .! stall_ID $end
    $var wire  1 # trap $end
    $var wire  1 # trapped $end
    $var wire  1 n trapped_q $end
    $var wire 32 $ x10 [31:0] $end
   $upscope $end
  $upscope $end
 $upscope $end
$enddefinitions $end


#5
0#
b00000000000000000000000000000000 $
b00000000000000000000000000000000 %
b00000000000000000000000000000000 &
b00000000000000000000000000000000 '
0(
b00000000000000000000000000000000 )
b00000000000000000000000000000000 *
0+
b00000 ,
b00000 -
b00000000000000000000000000000000 .
b00000000000000000000000000000000 /
b00000000000000000000000000000000 0
b00000000000000000000000000000000 1
b00000000000000000000000000000000 2
b00000000000000000000000000000000 3
b00000000000000000000000000000000 4
b00000000000000000000000000000000 5
b00000000000000000000000000000000 6
b00000000000000000000000000000000 7
b00000000000000000000000000000000 8
b00000000000000000000000000000000 9
b00000000000000000000000000000000 :
b00000000000000000000000000000000 ;
b00000000000000000000000000000000 <
b00000000000000000000000000000000 =
b00000000000000000000000000000000 >
b00000000000000000000000000000000 ?
b00000000000000000000000000000000 @
b00000000000000000000000000000000 A
b00000000000000000000000000000000 B
b00000000000000000000000000000000 C
b00000000000000000000000000000000 D
b00000000000000000000000000000000 E
b00000000000000000000000000000000 F
b00000000000000000000000000000000 G
b00000000000000000000000000000000 H
b00000000000000000000000000000000 I
b00000000000000000000000000000000 J
b00000000000000000000000000000000 K
b00000000000000000000000000000000 L
b00000000000000000000000000000000 M
b00000000000000000000000000000000 N
b00000000000000000000000000000000 O
b00000000000000000000000000000000 P
b00000000000000000000000000000000 Q
b00000000000000000000000000000000 R
b00000000000000000000000000000000 S
b00000000000000000000000000000000 T
b00000000000000000000000000000000 U
b0000000 V
b00000 W
b00000 X
b000 Y
b00000 Z
b0000000 [
b0000000 \
b00000 ]
b00000 ^
b000 _
b00000 `
b0000000 a
b000000000000 b
b000000000000 c
b0000000000000 d
b000000000000000000000 e
b00000000000000000000000000000000 f
b00000000000000000000000000000000 g
b00000000000000000000000000000000 h
b00000000000000000000000000000000 i
b00000000000000000000000000000000 j
b00000000000000000000000000000000 k
b00000000000000000000000000000000 l
b00000000000000000000000000000000 m
0n
1o
0p
0q
0r
0s
b00000000000000000000000000000000 t
b00000000000000000000000000000100 u
0v
b00000000000000000000000000000000 w
b0000 x
b00000000000000000000000000000000 y
1z
0{
0|
b00000000000000000000000000000000 }
b00000000000000000000000000000000 ~
b0000 !!
0"!
b00000000000000000000000000000000 #!
b00000 $!
b00000 %!
b00000000000000000000000000000100 &!
0'!
0(!
0)!
b00000000000000000000000000000000 *!
1+!
0,!
0-!
0.!
0/!
00!
b00000000000000000000000000010000 1!
b00000000000000000000000000000000 2!
b00000000000000000000000000100000 3!
b0000011 4!
b0100011 5!
b1000011 6!
b1100011 7!
b0000111 8!
b0100111 9!
b1000111 :!
b1100111 ;!
b0001011 <!
b0101011 =!
b1001011 >!
b1101011 ?!
b0001111 @!
b0101111 A!
b1001111 B!
b1101111 C!
b0010011 D!
b0110011 E!
b1010011 F!
b1110011 G!
b0010111 H!
b0110111 I!
b1010111 J!
b1110111 K!
b0011011 L!
b0111011 M!
b1011011 N!
b1111011 O!
#10
#15
b00000000000000000000000000000000 u
b00000000000000000000000000000000 &!
0+!
10!
#20
#25
b00000000000000010000000100110111 %
b00000000000000000000000000000001 *
b11111111111111111111111111111100 N
b00010 X
b00010 Z
b0110111 [
b000000000010 c
b0000000000010 d
b000010000000000000000 e
b00000000000000000000000000000010 g
b00000000000000000000000000000010 h
b00000000000000010000000000000000 i
0o
1p
1s
1/!
#30
#35
0/!
#40
#45
b00000000000000000000000000000010 *
b00000000000000010000000100110111 P
b00010 ^
b00010 `
b0110111 a
b00000000000000000000000000000010 k
b00000000000000000000000000000010 l
b00000000000000010000000000000000 m
1o
0p
b00000000000000010000000000000000 *!
1/!
#50
#55
0/!
#60
#65
b00000000000000000000000000000011 *
b00000000000000010000000000000000 T
1/!
#70
#75
0/!
#80
#85
b00000000000000000000000000000100 *
1/!
#90
#95
0/!
00!
#100
#105
b00000000000000000000000000000101 *
b00000000000000000000000000000000 N
0s
b00000000000000000000000000000100 u
b00000000000000000000000000000100 &!
1)!
1/!
#110
#115
0/!
#120
#125
b00000101100000000000000001101111 %
b00000000000000000000000000000110 *
b00000000000000010000000000000000 0
b00000000000000000000000000000100 N
b00000000000000000000000000000100 Q
b0000010 V
b11000 W
b00000 X
b00000 Z
b1101111 [
b000001011000 b
b000001000000 c
b0000001000000 d
b000000000000001011000 e
b00000000000000000000000001011000 f
b00000000000000000000000001000000 g
b00000000000000000000000001000000 h
b00000000000000000000000001011000 i
0o
b00000000000000000000000000001000 u
b00000000000000000000000000001000 &!
1/!
#130
#135
0/!
#140
#145
b00000000000001010000011100010011 %
b00000000000000000000000000000111 *
b00000000000000000000000000001000 N
b00000000000000000000000000000100 O
b00000101100000000000000001101111 P
b00000000000000000000000000001000 Q
b00000000000000000000000000000000 T
b0000000 V
b00000 W
b01010 X
b01110 Z
b0010011 [
b0000010 \
b11000 ]
b00000 ^
b00000 `
b1101111 a
b000000000000 b
b000000001110 c
b0000000001110 d
b001010000000000000000 e
b00000000000000000000000000000000 f
b00000000000000000000000000001110 g
b00000000000000000000000000001110 h
b00000000000001010000000000000000 i
b00000000000000000000000001011000 j
b00000000000000000000000001000000 k
b00000000000000000000000001000000 l
b00000000000000000000000001011000 m
1p
b00000000000000000000000001011100 u
b00000000000000000000000001011100 &!
b00000000000000000000000000001000 *!
1,!
1-!
1/!
#150
#155
0/!
#160
#165
b11111111000000010000000100010011 %
b00000000000000000000000000001000 *
b00000000000000000000000000001000 .
b00000000000000000000000001011100 N
b00000000000000000000000000001000 O
b00000000000001010000011100010011 P
b00000000000000000000000001011100 Q
b00000000000000010000000000000000 R
b00000000000000000000000000001000 U
b1111111 V
b10000 W
b00010 X
b00010 Z
b0000000 \
b00000 ]
b01010 ^
b01110 `
b0010011 a
b111111110000 b
b111111100010 c
b1011111100010 d
b100010000011111110000 e
b11111111111111111111111111110000 f
b11111111111111111111111111100010 g
b11111111111111111111011111100010 h
b11111111111100010000011111110000 i
b00000000000000000000000000000000 j
b00000000000000000000000000001110 k
b00000000000000000000000000001110 l
b00000000000001010000000000000000 m
0p
1q
b00000000000000000000000001100000 u
b00000000000000000000000001100000 &!
0)!
b00000000000000000000000000000000 *!
0,!
0-!
1/!
#170
#175
0/!
#180
#185
b00000000000100010010011000100011 %
b00000000000000000000000000001001 *
b00000000000000000000000001100000 N
b00000000000000000000000001011100 O
b11111111000000010000000100010011 P
b00000000000000000000000001100000 Q
b00000000000000010000000000000000 T
b00000000000000000000000000000000 U
b0000000 V
b00001 W
b010 Y
b01100 Z
b0100011 [
b1111111 \
b10000 ]
b00010 ^
b00010 `
b000000000001 b
b000000001100 c
b0000000001100 d
b000010010100000000000 e
b00000000000000000000000000000001 f
b00000000000000000000000000001100 g
b00000000000000000000000000001100 h
b00000000000000010010100000000000 i
b11111111111111111111111111110000 j
b11111111111111111111111111100010 k
b11111111111111111111011111100010 l
b11111111111100010000011111110000 m
1o
0q
b00000000000000000000000001100100 u
b00000000000000000000000001100100 &!
1)!
b00000000000000001111111111110000 *!
1/!
#190
#195
0/!
#200
#205
b00000000100000010010010000100011 %
b00000000000000000000000000001010 *
b00000000000000001111111111110000 0
b00000000000000000000000001100100 N
b00000000000000000000000001100000 O
b00000000000100010010011000100011 P
b00000000000000000000000001100100 Q
b00000000000000001111111111110000 R
b00000000000000001111111111110000 T
b01000 W
b01000 Z
b0000000 \
b00001 ]
b010 _
b01100 `
b0100011 a
b000000001000 b
b000000001000 c
b0000000001000 d
b000010010000000001000 e
b00000000000000000000000000001000 f
b00000000000000000000000000001000 g
b00000000000000000000000000001000 h
b00000000000000010010000000001000 i
b00000000000000000000000000000001 j
b00000000000000000000000000001100 k
b00000000000000000000000000001100 l
b00000000000000010010100000000000 m
0o
b00000000000000000000000001101000 u
1v
b00000000000000001111111111111100 w
b1111 x
1|
b00000000000000001111111111111100 }
b1111 !!
b00000000000000000000000001101000 &!
0)!
b00000000000000000000000000000000 *!
1/!
#210
#215
0/!
#220
#225
b00000000100100010010001000100011 %
b00000000000000000000000000000100 )
b00000000000000000000000000001011 *
b00000000000000000000000001101000 N
b00000000000000000000000001100100 O
b00000000100000010010010000100011 P
b00000000000000000000000001101000 Q
b01001 W
b00100 Z
b01000 ]
b01000 `
b000000001001 b
b000000000100 c
b0000000000100 d
b000010010100000001000 e
b00000000000000000000000000001001 f
b00000000000000000000000000000100 g
b00000000000000000000000000000100 h
b00000000000000010010100000001000 i
b00000000000000000000000000001000 j
b00000000000000000000000000001000 k
b00000000000000000000000000001000 l
b00000000000000010010000000001000 m
b00000000000000000000000001101100 u
b00000000000000001111111111111000 w
b00000000000000001111111111111000 }
b00000000000000000000000001101100 &!
1/!
#230
#235
0/!
#240
#245
b00000001001000010010000000100011 %
b00000000000000000000000000001100 *
b00000000000000000000000001101100 N
b00000000000000000000000001101000 O
b00000000100100010010001000100011 P
b00000000000000000000000001101100 Q
b10010 W
b00000 Z
b01001 ]
b00100 `
b000000010010 b
b000000000000 c
b0000000000000 d
b000010010000000010010 e
b00000000000000000000000000010010 f
b00000000000000000000000000000000 g
b00000000000000000000000000000000 h
b00000000000000010010000000010010 i
b00000000000000000000000000001001 j
b00000000000000000000000000000100 k
b00000000000000000000000000000100 l
b00000000000000010010100000001000 m
b00000000000000000000000001110000 u
b00000000000000001111111111110100 w
b00000000000000001111111111110100 }
b00000000000000000000000001110000 &!
1/!
#250
#255
0/!
#260
#265
b00011110100000000000010010010011 %
b00000000000000000000000000001101 *
b00000000000000000000000001110000 N
b00000000000000000000000001101100 O
b00000001001000010010000000100011 P
b00000000000000000000000001110000 Q
b00000000000000000000000000000000 R
b0001111 V
b01000 W
b00000 X
b000 Y
b01001 Z
b0010011 [
b10010 ]
b00000 `
b000111101000 b
b000111101001 c
b0100111101000 d
b000000000000111101000 e
b00000000000000000000000111101000 f
b00000000000000000000000111101001 g
b00000000000000000000100111101000 h
b00000000000000000000000111101000 i
b00000000000000000000000000010010 j
b00000000000000000000000000000000 k
b00000000000000000000000000000000 l
b00000000000000010010000000010010 m
1o
b00000000000000000000000001110100 u
b00000000000000001111111111110000 w
b00000000000000001111111111110000 }
b00000000000000000000000001110100 &!
1/!
#270
#275
0/!
#280
#285
b00000011001000000000010000010011 %
b00000000000000000000000000001110 *
b00000000000000000000000001110100 N
b00000000000000000000000001110000 O
b00011110100000000000010010010011 P
b00000000000000000000000001110100 Q
b00000000000000000000000000000000 T
b0000001 V
b10010 W
b01000 Z
b0001111 \
b01000 ]
b00000 ^
b000 _
b01001 `
b0010011 a
b000000110010 b
b000000101000 c
b0000000101000 d
b000000000000000110010 e
b00000000000000000000000000110010 f
b00000000000000000000000000101000 g
b00000000000000000000000000101000 h
b00000000000000000000000000110010 i
b00000000000000000000000111101000 j
b00000000000000000000000111101001 k
b00000000000000000000100111101000 l
b00000000000000000000000111101000 m
0o
b00000000000000000000000001111000 u
0v
b00000000000000000000000000000000 w
b0000 x
0|
b00000000000000000000000000000000 }
b0000 !!
b00000000000000000000000001111000 &!
1)!
b00000000000000000000000111101000 *!
1/!
#290
#295
0/!
#300
#305
b00111110100000000000100100010011 %
b00000000000000000000000000001111 *
b00000000000000000000000111101000 7
b00000000000000000000000001111000 N
b00000000000000000000000001110100 O
b00000011001000000000010000010011 P
b00000000000000000000000001111000 Q
b0011111 V
b01000 W
b10010 Z
b0000001 \
b10010 ]
b01000 `
b001111101000 b
b001111110010 c
b0001111110010 d
b000000000001111101000 e
b00000000000000000000001111101000 f
b00000000000000000000001111110010 g
b00000000000000000000001111110010 h
b00000000000000000000001111101000 i
b00000000000000000000000000110010 j
b00000000000000000000000000101000 k
b00000000000000000000000000101000 l
b00000000000000000000000000110010 m
1p
b00000000000000000000000001111100 u
b00000000000000000000000001111100 &!
b00000000000000000000000000110010 *!
1/!
#310
#315
0/!
#320
#325
b00000000000001000000010100010011 %
b00000000000000000000000000010000 *
b00000000000000000000000000110010 6
b00000000000000000000000001111100 N
b00000000000000000000000001111000 O
b00111110100000000000100100010011 P
b00000000000000000000000001111100 Q
b00000000000000000000000000110010 R
b00000000000000000000000000110010 U
b0000000 V
b00000 W
b01000 X
b01010 Z
b0011111 \
b01000 ]
b10010 `
b000000000000 b
b000000001010 c
b0000000001010 d
b001000000000000000000 e
b00000000000000000000000000000000 f
b00000000000000000000000000001010 g
b00000000000000000000000000001010 h
b00000000000001000000000000000000 i
b00000000000000000000001111101000 j
b00000000000000000000001111110010 k
b00000000000000000000001111110010 l
b00000000000000000000001111101000 m
0p
b00000000000000000000000010000000 u
b00000000000000000000000010000000 &!
b00000000000000000000001111101000 *!
1/!
#330
#335
0/!
#340
#345
b11111000100111111111000011101111 %
b00000000000000000000000000010001 *
b00000000000000000000001111101000 @
b00000000000000000000000010000000 N
b00000000000000000000000001111100 O
b00000000000001000000010100010011 P
b00000000000000000000000010000000 Q
b00000000000000000000000000000000 R
b00000000000000000000000111101000 S
b00000000000000000000000000110010 T
b00000000000000000000000000000000 U
b1111100 V
b01001 W
b11111 X
b111 Y
b00001 Z
b1101111 [
b0000000 \
b00000 ]
b01000 ^
b01010 `
b111110001001 b
b111110000001 c
b1111110000000 d
b111111111111110001000 e
b11111111111111111111111110001001 f
b11111111111111111111111110000001 g
b11111111111111111111111110000000 h
b11111111111111111111111110001000 i
b00000000000000000000000000000000 j
b00000000000000000000000000001010 k
b00000000000000000000000000001010 l
b00000000000001000000000000000000 m
b00000000000000000000000010000100 u
b00000000000000000000000010000100 &!
b00000000000000000000000000110010 *!
1/!
#350
#355
0/!
#360
#365
b00000000101001001010000000100011 %
b00000000000000000000000000010010 *
b00000000000000000000000000110010 8
b00000000000000000000000010000100 N
b00000000000000000000000010000000 O
b11111000100111111111000011101111 P
b00000000000000000000000010000100 Q
b00000000000000000000000111101000 R
b00000000000000000000000000110010 S
b00000000000000000000000000000000 T
b00000000000000000000000111101000 U
b0000000 V
b01010 W
b01001 X
b010 Y
b00000 Z
b0100011 [
b1111100 \
b01001 ]
b11111 ^
b111 _
b00001 `
b1101111 a
b000000001010 b
b000000000000 c
b0000000000000 d
b001001010000000001010 e
b00000000000000000000000000001010 f
b00000000000000000000000000000000 g
b00000000000000000000000000000000 h
b00000000000001001010000000001010 i
b11111111111111111111111110001001 j
b11111111111111111111111110000001 k
b11111111111111111111111110000000 l
b11111111111111111111111110001000 m
b00000000000000000000000000001000 u
b00000000000000000000000000001000 &!
b00000000000000000000000010000100 *!
1,!
1-!
1/!
#370
#375
0/!
#380
#385
b00000000000000000000000000110010 $
b00000000000001010000011100010011 %
b00000000000000000000000000010011 *
b00000000000000000000000010000100 /
b00000000000000000000000000001000 N
b00000000000000000000000010000100 O
b00000000101001001010000000100011 P
b00000000000000000000000000001000 Q
b00000000000000000000000000110010 R
b00000000000000000000000000000000 S
b00000000000000000000000111101000 T
b00000000000000000000000000110010 U
b00000 W
b01010 X
b000 Y
b01110 Z
b0010011 [
b0000000 \
b01010 ]
b01001 ^
b010 _
b00000 `
b0100011 a
b000000000000 b
b000000001110 c
b0000000001110 d
b001010000000000000000 e
b00000000000000000000000000000000 f
b00000000000000000000000000001110 g
b00000000000000000000000000001110 h
b00000000000001010000000000000000 i
b00000000000000000000000000001010 j
b00000000000000000000000000000000 k
b00000000000000000000000000000000 l
b00000000000001001010000000001010 m
1q
b00000000000000000000000000001100 u
b00000000000000000000000000001100 &!
0)!
b00000000000000000000000000000000 *!
0,!
0-!
1/!
#390
#395
0/!
#400
#405
b01000000000000000000011110110111 %
b00000000000000000000000000010100 *
b00000000000000000000000000001100 N
b00000000000000000000000000001000 O
b00000000000001010000011100010011 P
b00000000000000000000000000001100 Q
b00000000000000000000000000000000 R
b00000000000000000000000000110010 T
b00000000000000000000000000000000 U
b0100000 V
b00000 X
b01111 Z
b0110111 [
b00000 ]
b01010 ^
b000 _
b01110 `
b0010011 a
b010000000000 b
b010000001111 c
b0110000001110 d
b000000000010000000000 e
b00000000000000000000010000000000 f
b00000000000000000000010000001111 g
b00000000000000000000110000001110 h
b00000000000000000000010000000000 i
b00000000000000000000000000000000 j
b00000000000000000000000000001110 k
b00000000000000000000000000001110 l
b00000000000001010000000000000000 m
0q
b00000000000000000000000000010000 u
b00000000000000000000000000010000 &!
1)!
b00000000000000000000000000110010 *!
1/!
#410
#415
0/!
#420
#425
b00000000111101010111110001100011 %
b00000000000000000000000000010101 *
b00000000000000000000000000110010 <
b00000000000000000000000000010000 N
b00000000000000000000000000001100 O
b01000000000000000000011110110111 P
b00000000000000000000000000010000 Q
b00000000000000000000000000110010 R
b00000000000000000000000000000000 T
b0000000 V
b01111 W
b01010 X
b111 Y
b11000 Z
b1100011 [
b0100000 \
b00000 ^
b01111 `
b0110111 a
b000000001111 b
b000000011000 c
b0000000011000 d
b001010111100000001110 e
b00000000000000000000000000001111 f
b00000000000000000000000000011000 g
b00000000000000000000000000011000 h
b00000000000001010111100000001110 i
b00000000000000000000010000000000 j
b00000000000000000000010000001111 k
b00000000000000000000110000001110 l
b00000000000000000000010000000000 m
1p
b00000000000000000000000000010100 u
b00000000000000000000000000010100 &!
b01000000000000000000000000000000 *!
1/!
#430
#435
0/!
#440
#445
b00000000001001111101011110010011 %
b00000000000000000000000000010110 *
b01000000000000000000000000000000 =
b00000000000000000000000000010100 N
b00000000000000000000000000010000 O
b00000000111101010111110001100011 P
b00000000000000000000000000010100 Q
b01000000000000000000000000000000 R
b00000000000000001111111111110000 S
b00000000000000000000000000110010 T
b01000000000000000000000000000000 U
b00010 W
b01111 X
b101 Y
b01111 Z
b0010011 [
b0000000 \
b01111 ]
b01010 ^
b111 _
b11000 `
b1100011 a
b000000000010 b
b000000001111 c
b0100000001110 d
b001111101000000000010 e
b00000000000000000000000000000010 f
b00000000000000000000000000001111 g
b00000000000000000000100000001110 h
b00000000000001111101000000000010 i
b00000000000000000000000000001111 j
b00000000000000000000000000011000 k
b00000000000000000000000000011000 l
b00000000000001010111100000001110 m
0p
b00000000000000000000000000011000 u
b00000000000000000000000000011000 &!
0)!
b00000000000000000000000000000000 *!
1/!
#450
#455
0/!
#460
#465
b11111110111101110110111011100011 %
b00000000000000000000000000010111 *
b00000000000000000000000000011000 N
b00000000000000000000000000010100 O
b00000000001001111101011110010011 P
b00000000000000000000000000011000 Q
b00000000000000000000000000110010 R
b01000000000000000000000000000000 S
b01000000000000000000000000000000 T
b00000000000000001111111111110000 U
b1111111 V
b01111 W
b01110 X
b110 Y
b11101 Z
b1100011 [
b00010 ]
b01111 ^
b101 _
b01111 `
b0010011 a
b111111101111 b
b111111111101 c
b1111111111100 d
b101110110111111101110 e
b11111111111111111111111111101111 f
b11111111111111111111111111111101 g
b11111111111111111111111111111100 h
b11111111111101110110111111101110 i
b00000000000000000000000000000010 j
b00000000000000000000000000001111 k
b00000000000000000000100000001110 l
b00000000000001111101000000000010 m
1p
b00000000000000000000000000011100 u
b00000000000000000000000000011100 &!
1)!
b00010000000000000000000000000000 *!
1/!
#470
#475
0/!
#480
#485
b00000010000001111000110001100011 %
b00000000000000000000000000011000 *
b00010000000000000000000000000000 =
b00000000000000000000000000011100 N
b00000000000000000000000000011000 O
b11111110111101110110111011100011 P
b00000000000000000000000000011100 Q
b00010000000000000000000000000000 R
b00000000000000000000000000000000 S
b00000000000000000000000000110010 T
b00010000000000000000000000000000 U
b0000001 V
b00000 W
b01111 X
b000 Y
b11000 Z
b1111111 \
b01111 ]
b01110 ^
b110 _
b11101 `
b1100011 a
b000000100000 b
b000000111000 c
b0000000111000 d
b001111000000000100000 e
b00000000000000000000000000100000 f
b00000000000000000000000000111000 g
b00000000000000000000000000111000 h
b00000000000001111000000000100000 i
b11111111111111111111111111101111 j
b11111111111111111111111111111101 k
b11111111111111111111111111111100 l
b11111111111101110110111111101110 m
0p
b00000000000000000000000000010100 u
b00000000000000000000000000010100 &!
0)!
b00000000000000000000000000000000 *!
1,!
1-!
1/!
#490
#495
0/!
#500
#505
b00000000001001111101011110010011 %
b00000000000000000000000000011001 *
b00000000000000000000000000010100 N
b00000000000000000000000000011100 O
b00000010000001111000110001100011 P
b00000000000000000000000000010100 Q
b00000000000000001111111111110000 S
b00010000000000000000000000000000 T
b00000000000000000000000000000000 U
b0000000 V
b00010 W
b101 Y
b01111 Z
b0010011 [
b0000001 \
b00000 ]
b01111 ^
b000 _
b11000 `
b000000000010 b
b000000001111 c
b0100000001110 d
b001111101000000000010 e
b00000000000000000000000000000010 f
b00000000000000000000000000001111 g
b00000000000000000000100000001110 h
b00000000000001111101000000000010 i
b00000000000000000000000000100000 j
b00000000000000000000000000111000 k
b00000000000000000000000000111000 l
b00000000000001111000000000100000 m
1q
b00000000000000000000000000011000 u
b00000000000000000000000000011000 &!
0,!
0-!
1/!
#510
#515
0/!
#520
#525
b11111110111101110110111011100011 %
b00000000000000000000000000011010 *
b00000000000000000000000000011000 N
b00000000000000000000000000010100 O
b00000000001001111101011110010011 P
b00000000000000000000000000011000 Q
b00000000000000000000000000110010 R
b00010000000000000000000000000000 S
b00000000000000001111111111110000 U
b1111111 V
b01111 W
b01110 X
b110 Y
b11101 Z
b1100011 [
b0000000 \
b00010 ]
b101 _
b01111 `
b0010011 a
b111111101111 b
b111111111101 c
b1111111111100 d
b101110110111111101110 e
b11111111111111111111111111101111 f
b11111111111111111111111111111101 g
b11111111111111111111111111111100 h
b11111111111101110110111111101110 i
b00000000000000000000000000000010 j
b00000000000000000000000000001111 k
b00000000000000000000100000001110 l
b00000000000001111101000000000010 m
1p
0q
b00000000000000000000000000011100 u
b00000000000000000000000000011100 &!
1)!
b00000100000000000000000000000000 *!
1/!
#530
#535
0/!
#540
